<?xml version="1.0" encoding="utf-8"?>
<!-- Generator: Adobe Illustrator 21.0.0, SVG Export Plug-In . SVG Version: 6.00 Build 0)  -->
<svg version="1.1" id="Layer_1" xmlns="http://www.w3.org/2000/svg" xmlns:xlink="http://www.w3.org/1999/xlink" x="0px" y="0px"
	 viewBox="0 0 900 900" style="enable-background:new 0 0 900 900;" xml:space="preserve">
<style type="text/css">
	.st0{fill:#EEEEEE;}
	.st1{fill:#AAAAAA;}
</style>
<g>
	<g>
		<g>
			<path class="st0" d="M812.1,321.3C707.4,281.2,372.4,410,372.4,410C480.5,296.6,686,245.9,686,245.9l0.9-41.4
				c-324.7,81.8-403,245.6-403,245.6L71.3,560.4v3.6l206.4-90.7c-15.1,105,27.6,129.9,27.6,129.9l5.4,7.1l140.6-6.2
				c174.4-66.7,243.8-116.6,243.8-116.6C888.9,358.4,812.1,321.3,812.1,321.3z M692.7,440.7v-56C399.1,580.8,323,515.5,323,515.5
				c-41.4-33.4,26.7-74.8,26.7-74.8C650,319.3,759.4,335.3,759.4,335.3C854.5,346.5,692.7,440.7,692.7,440.7z"/>
		</g>
		<path class="st1" d="M250.1,603.1v87h440.4v-87H250.1L250.1,603.1z M326,637.7h-2.4c-2.3-5.1-5.4-9.3-9.2-12.4
			c-3.9-3.1-8.1-4.6-12.8-4.6c-6.3,0-11.1,2.1-14.4,6.2s-5,10.3-5.1,18.5c-0.2,7.8,1.1,14.3,3.9,19.4c2.7,5.2,7.1,7.8,13,7.8
			c5.5,0,10.5-1.6,15.2-4.8c4.6-3.2,7.9-7.4,9.9-12.5h1.7v19.4h-1.3c-1.6-2.6-3-3.9-4.4-3.9c-0.4,0-1.9,0.5-4.6,1.4
			c-2.6,0.8-5.1,1.4-7.7,1.9c-2.6,0.4-5.5,0.7-8.8,0.7c-4.7,0.1-9.2-1.1-13.6-3.5c-4.4-2.5-8-5.8-10.7-10.1s-4.1-9.1-4.2-14.3
			c0-5.2,1.3-9.9,4-14.3c2.7-4.3,6.3-7.7,10.6-10.1c4.4-2.4,9-3.7,13.7-3.7c4,0,6.9,0.2,8.9,0.6s4.1,1,6.4,1.7s4.4,1.1,6.2,1.1
			c1,0,1.8-0.2,2.3-0.5s1-1.1,1.6-2.3h1.9v18.3L326,637.7L326,637.7z M359.3,621.7c-2.3-0.1-4,0.1-5,0.4c-1.1,0.3-1.7,1-2,1.9
			s-0.4,2.3-0.4,4.2v36.9c0,3,0.4,4.8,1.3,5.5c0.8,0.7,2.9,1,6.2,1v2h-25.7v-2c2.4-0.1,4-0.2,4.8-0.4s1.5-0.6,1.9-1.4
			c0.5-0.8,0.7-2.1,0.7-3.9v-37.1c0-2.3-0.1-3.9-0.5-4.9c-0.3-1-1-1.6-2-1.9c-1-0.3-2.7-0.4-5-0.3v-2.1h25.7V621.7L359.3,621.7z
			 M409.4,644.4c-3,2-8,3.1-15.1,3.1h-11v18c0,2.1,0.2,3.5,0.7,4.3s1.2,1.3,2.2,1.6c1,0.2,2.9,0.3,5.5,0.3v2h-26.8v-2
			c2.6,0,4.3-0.1,5.3-0.5c1-0.3,1.6-1,1.9-2s0.4-2.6,0.4-4.8v-35.6c0-2.2-0.1-3.8-0.4-4.7s-0.9-1.6-1.9-1.9c-1-0.3-2.8-0.5-5.4-0.5
			v-2.1h24.9c4.5,0,8.6,0.5,12.3,1.6c3.7,1,6.6,2.8,8.8,5.2c2.2,2.4,3.3,5.4,3.2,9.1C413.9,639.3,412.4,642.3,409.4,644.4
			L409.4,644.4z M398.8,624.4c3,1.8,4.4,4.7,4.4,8.7c-0.2,8.2-4.7,12.3-13.6,12.3h-6.4v-19c0-2.1,0.3-3.5,0.9-4s1.9-0.8,4-0.8
			C392.2,621.7,395.9,622.6,398.8,624.4L398.8,624.4z M483.8,621.7c-2.5,0-4.3,0.4-5.4,1.2c-1.1,0.8-1.6,2.6-1.6,5.3v28.1
			c0,4-0.8,7.3-2.5,9.8s-4.3,4.5-7.9,6c-4,1.7-8.9,2.5-14.9,2.5H450c-16-0.4-24-7-24-19.9v-26.3c0-2.9-0.5-4.8-1.5-5.6
			s-2.6-1.2-4.7-1.2v-2.1h24.6v2.1c-1,0-1.7,0-2.1,0.1c-2.2,0-3.7,0.3-4.4,0.9c-0.7,0.6-1.1,2.3-1.1,5V654c0,6.4,1.3,11.1,4,14
			s6.9,4.5,12.6,4.6c3.5,0.1,6.8-0.3,9.9-1.4c3.1-1.1,5.7-2.9,7.7-5.4s3-5.5,3-9v-28c0-2.9-0.6-4.8-1.8-5.8s-3.4-1.4-6.6-1.3v-2.1
			h18.2L483.8,621.7L483.8,621.7z M541.9,634.8c-5.2-8.7-11.4-13-18.5-13c-1.2,0-1.9,0.1-2.3,0.4c-0.3,0.3-0.5,1.1-0.5,2.3v41
			c0,2.6,0.4,4.2,1.2,5s3.2,1.2,7.2,1.2v2h-27.6v-2c2.5,0,4.3-0.1,5.3-0.3s1.8-0.7,2.3-1.5s0.7-2.1,0.7-3.9v-41.1
			c0-1.3-0.2-2.1-0.5-2.6c-0.3-0.4-1.1-0.6-2.3-0.6c-3.9,0-7.5,1.2-10.7,3.7c-3.3,2.5-5.8,5.6-7.8,9.3l-1.7-0.4l3.3-15.8h2.7
			c0.7,0.7,2.2,1.1,4.2,1.1h35.9c2.6,0,4.1-0.4,4.6-1.1h2.9l3.2,15.8L541.9,634.8L541.9,634.8z M604.3,673.7h-17.5l-10.7-20.8
			c-1.1-2.3-2.1-3.7-3-4.4s-1.9-1-3.2-1h-1.3h-4.5v17.4c0,2.1,0.1,3.5,0.3,4.4s0.9,1.5,2,1.9s2.8,0.6,5.3,0.5v2h-24.9v-2
			c2.9,0,4.8-0.3,5.5-0.9c0.8-0.6,1.1-2.5,1.1-5.6V628c0-2.7-0.4-4.4-1.1-5.2c-0.7-0.7-2.6-1.1-5.6-1.1v-2.1h22.8
			c4.5,0,8.5,0.4,12.2,1.3s6.8,2.5,9.2,4.9s3.7,5.6,3.7,9.6c0,3.6-1.4,6.3-4.3,8c-3,1.7-5.7,2.6-8.3,2.7v0.3
			c0.9,0.4,1.6,0.8,2.1,1.5c0.5,0.6,1,1.5,1.6,2.5l9.3,15.2c1.3,2.1,2.3,3.6,2.9,4.3c0.6,0.7,1.3,1.2,2.1,1.4s2.2,0.3,4.2,0.4
			L604.3,673.7L604.3,673.7z M582.2,627.1c0.9,1.6,1.4,3.8,1.5,6.5c0,4.8-1.9,8.2-5.6,10.2c-2.6,1.1-6.4,1.7-11.6,1.8
			c-0.5-0.1-1.3-0.1-2.4-0.1v-23.7c4.2,0,7.2,0.1,9,0.2c1.9,0.2,3.4,0.6,4.6,1.1C579.8,624.2,581.2,625.5,582.2,627.1L582.2,627.1z
			 M670.1,673.7h-26v-2c4.4,0,6.6-0.9,6.6-2.9c0-0.8-0.3-1.9-1-3.3l-3.9-7.9h-23.9l-3.2,7.6c-0.6,1.5-0.9,2.6-0.9,3.3
			c0,2.1,2.2,3.2,6.5,3.2v2H607v-2c2.4-0.5,4.2-1.3,5.4-2.4s2.3-2.6,3.3-4.6l16.2-36c-0.5-1.4-1.1-2.2-1.6-2.4
			c2-1.7,3.6-3.2,4.7-4.4c0.5-0.5,1.2-1.1,1.8-2c0.7-0.8,1.1-1.2,1.4-1.2c0.4,0,0.8,0.4,1.2,1.3l21,43.1c1.3,3,2.3,5,3.2,6.1
			c1.1,1.4,3.3,2.3,6.5,2.5L670.1,673.7L670.1,673.7z M622.7,655l10.4-23.1l11,23.1H622.7z"/>
	</g>
</g>
</svg>
